module go-auth-jwt

go 1.21.1

require (
	github.com/dgrijalva/jwt-go v3.2.0+incompatible // indirect
	github.com/golang-jwt/jwt v3.2.2+incompatible // indirect
	github.com/golang-jwt/jwt/v4 v4.4.2 // indirect
	github.com/golang-jwt/jwt/v5 v5.2.1 // indirect
	github.com/labstack/echo v3.3.10+incompatible // indirect
	github.com/labstack/echo-jwt v0.0.0-20221127215225-c84d41a71003 // indirect
	github.com/labstack/echo-jwt/v4 v4.2.0 // indirect
	github.com/labstack/echo/v4 v4.12.0 // indirect
	github.com/labstack/gommon v0.4.2 // indirect
	github.com/mattn/go-colorable v0.1.13 // indirect
	github.com/mattn/go-isatty v0.0.20 // indirect
	github.com/valyala/bytebufferpool v1.0.0 // indirect
	github.com/valyala/fasttemplate v1.2.2 // indirect
	golang.org/x/crypto v0.22.0 // indirect
	golang.org/x/net v0.24.0 // indirect
	golang.org/x/sys v0.19.0 // indirect
	golang.org/x/text v0.14.0 // indirect
	golang.org/x/time v0.5.0 // indirect
)
